*** Life<ConwayCell> 47x2 ***

Generation = 0, Population = 39.
*.
*.
.*
**
*.
.*
.*
.*
*.
*.
.*
**
.*
..
.*
.*
*.
..
..
.*
..
**
.*
*.
*.
.*
..
*.
..
*.
..
*.
*.
..
..
..
..
.*
.*
.*
*.
**
.*
*.
..
.*
*.

Generation = 1, Population = 40.
..
**
.*
**
*.
**
**
**
**
**
.*
**
**
..
..
**
..
..
..
..
**
**
.*
**
**
..
..
..
..
..
..
..
..
..
..
..
..
..
**
**
*.
**
.*
..
..
..
..

Generation = 2, Population = 16.
..
**
..
**
..
..
..
..
..
..
..
..
**
..
..
..
..
..
..
..
**
..
..
..
**
..
..
..
..
..
..
..
..
..
..
..
..
..
**
..
..
**
**
..
..
..
..

Generation = 3, Population = 4.
..
..
..
..
..
..
..
..
..
..
..
..
..
..
..
..
..
..
..
..
..
..
..
..
..
..
..
..
..
..
..
..
..
..
..
..
..
..
..
..
..
**
**
..
..
..
..

Generation = 4, Population = 4.
..
..
..
..
..
..
..
..
..
..
..
..
..
..
..
..
..
..
..
..
..
..
..
..
..
..
..
..
..
..
..
..
..
..
..
..
..
..
..
..
..
**
**
..
..
..
..

Generation = 5, Population = 4.
..
..
..
..
..
..
..
..
..
..
..
..
..
..
..
..
..
..
..
..
..
..
..
..
..
..
..
..
..
..
..
..
..
..
..
..
..
..
..
..
..
**
**
..
..
..
..

*** Life<ConwayCell> 10x19 ***

Generation = 0, Population = 1.
..*................
...................
...................
...................
...................
...................
...................
...................
...................
...................

Generation = 1, Population = 0.
...................
...................
...................
...................
...................
...................
...................
...................
...................
...................

Generation = 2, Population = 0.
...................
...................
...................
...................
...................
...................
...................
...................
...................
...................

Generation = 3, Population = 0.
...................
...................
...................
...................
...................
...................
...................
...................
...................
...................

Generation = 4, Population = 0.
...................
...................
...................
...................
...................
...................
...................
...................
...................
...................

Generation = 5, Population = 0.
...................
...................
...................
...................
...................
...................
...................
...................
...................
...................

*** Life<ConwayCell> 45x44 ***

Generation = 0, Population = 21.
.......................................*....
............................................
*...........................................
............................................
............................................
............................................
............................................
............................................
.........................................*..
............................................
............................................
............................................
............................................
.......................*..*.................
.....................*......................
............................................
..........*............................*....
............................................
.........................*..................
....................*.............*.........
.....*......................................
............................*...............
.........*.....................*............
......*.....................................
............................................
............................................
............................................
...*........................................
............................................
............................................
...........*................................
............................................
............................................
............................................
.................*..........................
.................*..........................
............................................
............................................
............................................
............................................
............................................
........*...................................
............................................
............................................
............................................

Generation = 1, Population = 0.
............................................
............................................
............................................
............................................
............................................
............................................
............................................
............................................
............................................
............................................
............................................
............................................
............................................
............................................
............................................
............................................
............................................
............................................
............................................
............................................
............................................
............................................
............................................
............................................
............................................
............................................
............................................
............................................
............................................
............................................
............................................
............................................
............................................
............................................
............................................
............................................
............................................
............................................
............................................
............................................
............................................
............................................
............................................
............................................
............................................

Generation = 2, Population = 0.
............................................
............................................
............................................
............................................
............................................
............................................
............................................
............................................
............................................
............................................
............................................
............................................
............................................
............................................
............................................
............................................
............................................
............................................
............................................
............................................
............................................
............................................
............................................
............................................
............................................
............................................
............................................
............................................
............................................
............................................
............................................
............................................
............................................
............................................
............................................
............................................
............................................
............................................
............................................
............................................
............................................
............................................
............................................
............................................
............................................

Generation = 3, Population = 0.
............................................
............................................
............................................
............................................
............................................
............................................
............................................
............................................
............................................
............................................
............................................
............................................
............................................
............................................
............................................
............................................
............................................
............................................
............................................
............................................
............................................
............................................
............................................
............................................
............................................
............................................
............................................
............................................
............................................
............................................
............................................
............................................
............................................
............................................
............................................
............................................
............................................
............................................
............................................
............................................
............................................
............................................
............................................
............................................
............................................

Generation = 4, Population = 0.
............................................
............................................
............................................
............................................
............................................
............................................
............................................
............................................
............................................
............................................
............................................
............................................
............................................
............................................
............................................
............................................
............................................
............................................
............................................
............................................
............................................
............................................
............................................
............................................
............................................
............................................
............................................
............................................
............................................
............................................
............................................
............................................
............................................
............................................
............................................
............................................
............................................
............................................
............................................
............................................
............................................
............................................
............................................
............................................
............................................

Generation = 5, Population = 0.
............................................
............................................
............................................
............................................
............................................
............................................
............................................
............................................
............................................
............................................
............................................
............................................
............................................
............................................
............................................
............................................
............................................
............................................
............................................
............................................
............................................
............................................
............................................
............................................
............................................
............................................
............................................
............................................
............................................
............................................
............................................
............................................
............................................
............................................
............................................
............................................
............................................
............................................
............................................
............................................
............................................
............................................
............................................
............................................
............................................

*** Life<ConwayCell> 25x17 ***

Generation = 0, Population = 24.
...............*.
.*..............*
...*.............
.................
.........*...*...
.................
.................
............*....
...........*.....
.................
.................
.............*.**
.................
.................
.................
.*...............
.......*.........
.......*....*..*.
.................
.................
...........*.....
.....*.*..*......
.*....*..........
.................
..*.*............

Generation = 1, Population = 2.
.................
.................
.................
.................
.................
.................
.................
.................
.................
.................
.................
.................
.................
.................
.................
.................
.................
.................
.................
.................
.................
......*..........
......*..........
.................
.................

Generation = 2, Population = 0.
.................
.................
.................
.................
.................
.................
.................
.................
.................
.................
.................
.................
.................
.................
.................
.................
.................
.................
.................
.................
.................
.................
.................
.................
.................

Generation = 3, Population = 0.
.................
.................
.................
.................
.................
.................
.................
.................
.................
.................
.................
.................
.................
.................
.................
.................
.................
.................
.................
.................
.................
.................
.................
.................
.................

Generation = 4, Population = 0.
.................
.................
.................
.................
.................
.................
.................
.................
.................
.................
.................
.................
.................
.................
.................
.................
.................
.................
.................
.................
.................
.................
.................
.................
.................

Generation = 5, Population = 0.
.................
.................
.................
.................
.................
.................
.................
.................
.................
.................
.................
.................
.................
.................
.................
.................
.................
.................
.................
.................
.................
.................
.................
.................
.................

*** Life<ConwayCell> 33x8 ***

Generation = 0, Population = 28.
........
........
........
....*...
........
.*......
........
.......*
...*.**.
........
........
.*......
.*.*..*.
.......*
...*..*.
........
...*....
**......
......*.
........
.....**.
..*.....
.*....*.
........
....*..*
........
...*....
.....*..
........
........
.....*..
....*...
........

Generation = 1, Population = 11.
........
........
........
........
........
........
........
......*.
......*.
........
........
..*.....
..*.....
..*...**
........
........
........
........
........
.....**.
........
.....**.
........
........
........
........
........
........
........
........
........
........
........

Generation = 2, Population = 3.
........
........
........
........
........
........
........
........
........
........
........
........
.***....
........
........
........
........
........
........
........
........
........
........
........
........
........
........
........
........
........
........
........
........

Generation = 3, Population = 3.
........
........
........
........
........
........
........
........
........
........
........
..*.....
..*.....
..*.....
........
........
........
........
........
........
........
........
........
........
........
........
........
........
........
........
........
........
........

Generation = 4, Population = 3.
........
........
........
........
........
........
........
........
........
........
........
........
.***....
........
........
........
........
........
........
........
........
........
........
........
........
........
........
........
........
........
........
........
........

Generation = 5, Population = 3.
........
........
........
........
........
........
........
........
........
........
........
..*.....
..*.....
..*.....
........
........
........
........
........
........
........
........
........
........
........
........
........
........
........
........
........
........
........

*** Life<ConwayCell> 46x6 ***

Generation = 0, Population = 39.
......
......
....*.
..*...
......
......
..*...
*.....
....*.
.**...
......
....*.
..*...
.*....
*.*...
...**.
......
..*...
...**.
...*.*
..*...
...*..
...*..
......
......
......
..*...
.*.**.
......
....*.
.....*
......
*.....
..*..*
..*...
......
.*....
......
...**.
....*.
*.....
*.....
......
......
...*..
......

Generation = 1, Population = 30.
......
......
......
......
......
......
......
......
.*....
......
......
......
......
.**...
.***..
...*..
...*..
...*..
..***.
..**..
..***.
..**..
......
......
......
......
..**..
..**..
...**.
......
......
......
......
.*....
......
......
......
......
...**.
...**.
......
......
......
......
......
......

Generation = 2, Population = 24.
......
......
......
......
......
......
......
......
......
......
......
......
......
.*.*..
.*.*..
...**.
..***.
......
....*.
.*....
.*..*.
..*.*.
......
......
......
......
..**..
......
..***.
......
......
......
......
......
......
......
......
......
...**.
...**.
......
......
......
......
......
......

Generation = 3, Population = 15.
......
......
......
......
......
......
......
......
......
......
......
......
......
......
...*..
......
..*.*.
....*.
......
......
.***..
...*..
......
......
......
......
......
....*.
...*..
...*..
......
......
......
......
......
......
......
......
...**.
...**.
......
......
......
......
......
......

Generation = 4, Population = 13.
......
......
......
......
......
......
......
......
......
......
......
......
......
......
......
...*..
...*..
...*..
......
..*...
..**..
...*..
......
......
......
......
......
......
...**.
......
......
......
......
......
......
......
......
......
...**.
...**.
......
......
......
......
......
......

Generation = 5, Population = 13.
......
......
......
......
......
......
......
......
......
......
......
......
......
......
......
......
..***.
......
......
..**..
..**..
..**..
......
......
......
......
......
......
......
......
......
......
......
......
......
......
......
......
...**.
...**.
......
......
......
......
......
......

*** Life<ConwayCell> 2x9 ***

Generation = 0, Population = 6.
...*..*.*
*...*...*

Generation = 1, Population = 2.
.......*.
.......*.

Generation = 2, Population = 0.
.........
.........

Generation = 3, Population = 0.
.........
.........

Generation = 4, Population = 0.
.........
.........

Generation = 5, Population = 0.
.........
.........

*** Life<ConwayCell> 7x18 ***

Generation = 0, Population = 16.
....*.............
*..*.*.........*..
..........*.......
..........*.......
.*..*.*...........
.....*..*....*...*
**................

Generation = 1, Population = 6.
....*.............
....*.............
..................
..................
.....*............
**...*............
..................

Generation = 2, Population = 0.
..................
..................
..................
..................
..................
..................
..................

Generation = 3, Population = 0.
..................
..................
..................
..................
..................
..................
..................

Generation = 4, Population = 0.
..................
..................
..................
..................
..................
..................
..................

Generation = 5, Population = 0.
..................
..................
..................
..................
..................
..................
..................

*** Life<ConwayCell> 26x9 ***

Generation = 0, Population = 24.
........*
...*.....
.........
.*.......
.....**..
.........
.........
.........
.........
.....*...
.....*...
..*......
.*.......
.........
........*
.........
**.*.....
......*..
.......*.
.....*...
.....*...
.........
......*..
...**..**
....*....
........*

Generation = 1, Population = 11.
.........
.........
.........
.........
.........
.........
.........
.........
.........
.........
.........
.........
.........
.........
.........
.........
.........
.........
......*..
......*..
.........
.........
.......*.
...***.*.
...**..**
.........

Generation = 2, Population = 10.
.........
.........
.........
.........
.........
.........
.........
.........
.........
.........
.........
.........
.........
.........
.........
.........
.........
.........
.........
.........
.........
.........
....*.*..
...*.*.*.
...*.****
.........

Generation = 3, Population = 10.
.........
.........
.........
.........
.........
.........
.........
.........
.........
.........
.........
.........
.........
.........
.........
.........
.........
.........
.........
.........
.........
.........
....***..
...*....*
.....*.**
......**.

Generation = 4, Population = 8.
.........
.........
.........
.........
.........
.........
.........
.........
.........
.........
.........
.........
.........
.........
.........
.........
.........
.........
.........
.........
.........
.....*...
....**...
........*
........*
......***

Generation = 5, Population = 7.
.........
.........
.........
.........
.........
.........
.........
.........
.........
.........
.........
.........
.........
.........
.........
.........
.........
.........
.........
.........
.........
....**...
....**...
.........
........*
.......**

*** Life<ConwayCell> 25x39 ***

Generation = 0, Population = 3.
.......................................
.......................................
.......................................
.......................................
.......................................
.......................................
.......................................
.......................................
.......................................
.......................................
..................*....................
.......................................
.......................................
.......................................
.......................................
.......................................
.......................................
.......................................
.......................................
.......................................
.......................................
......*................................
.......................................
.........................*.............
.......................................

Generation = 1, Population = 0.
.......................................
.......................................
.......................................
.......................................
.......................................
.......................................
.......................................
.......................................
.......................................
.......................................
.......................................
.......................................
.......................................
.......................................
.......................................
.......................................
.......................................
.......................................
.......................................
.......................................
.......................................
.......................................
.......................................
.......................................
.......................................

Generation = 2, Population = 0.
.......................................
.......................................
.......................................
.......................................
.......................................
.......................................
.......................................
.......................................
.......................................
.......................................
.......................................
.......................................
.......................................
.......................................
.......................................
.......................................
.......................................
.......................................
.......................................
.......................................
.......................................
.......................................
.......................................
.......................................
.......................................

Generation = 3, Population = 0.
.......................................
.......................................
.......................................
.......................................
.......................................
.......................................
.......................................
.......................................
.......................................
.......................................
.......................................
.......................................
.......................................
.......................................
.......................................
.......................................
.......................................
.......................................
.......................................
.......................................
.......................................
.......................................
.......................................
.......................................
.......................................

Generation = 4, Population = 0.
.......................................
.......................................
.......................................
.......................................
.......................................
.......................................
.......................................
.......................................
.......................................
.......................................
.......................................
.......................................
.......................................
.......................................
.......................................
.......................................
.......................................
.......................................
.......................................
.......................................
.......................................
.......................................
.......................................
.......................................
.......................................

Generation = 5, Population = 0.
.......................................
.......................................
.......................................
.......................................
.......................................
.......................................
.......................................
.......................................
.......................................
.......................................
.......................................
.......................................
.......................................
.......................................
.......................................
.......................................
.......................................
.......................................
.......................................
.......................................
.......................................
.......................................
.......................................
.......................................
.......................................

*** Life<ConwayCell> 32x2 ***

Generation = 0, Population = 10.
..
..
..
..
..
..
**
..
..
..
..
*.
..
*.
..
..
..
.*
.*
..
..
..
..
.*
..
.*
*.
..
..
..
.*
..

Generation = 1, Population = 0.
..
..
..
..
..
..
..
..
..
..
..
..
..
..
..
..
..
..
..
..
..
..
..
..
..
..
..
..
..
..
..
..

Generation = 2, Population = 0.
..
..
..
..
..
..
..
..
..
..
..
..
..
..
..
..
..
..
..
..
..
..
..
..
..
..
..
..
..
..
..
..

Generation = 3, Population = 0.
..
..
..
..
..
..
..
..
..
..
..
..
..
..
..
..
..
..
..
..
..
..
..
..
..
..
..
..
..
..
..
..

Generation = 4, Population = 0.
..
..
..
..
..
..
..
..
..
..
..
..
..
..
..
..
..
..
..
..
..
..
..
..
..
..
..
..
..
..
..
..

Generation = 5, Population = 0.
..
..
..
..
..
..
..
..
..
..
..
..
..
..
..
..
..
..
..
..
..
..
..
..
..
..
..
..
..
..
..
..

*** Life<ConwayCell> 32x26 ***

Generation = 0, Population = 18.
...............*..........
..........................
..........................
..........................
..........................
...............*..........
..........................
..........................
..........................
..........................
..*...................*...
...................*......
....................*.....
...*......................
...............**.........
........................*.
......*...................
.........*................
..........................
..........................
......*.*.................
.......*..................
..........................
..........................
..........................
..........................
..........................
..*.......................
............*.............
..........................
..........................
....................*.....

Generation = 1, Population = 2.
..........................
..........................
..........................
..........................
..........................
..........................
..........................
..........................
..........................
..........................
..........................
..........................
..........................
..........................
..........................
..........................
..........................
..........................
..........................
..........................
.......*..................
.......*..................
..........................
..........................
..........................
..........................
..........................
..........................
..........................
..........................
..........................
..........................

Generation = 2, Population = 0.
..........................
..........................
..........................
..........................
..........................
..........................
..........................
..........................
..........................
..........................
..........................
..........................
..........................
..........................
..........................
..........................
..........................
..........................
..........................
..........................
..........................
..........................
..........................
..........................
..........................
..........................
..........................
..........................
..........................
..........................
..........................
..........................

Generation = 3, Population = 0.
..........................
..........................
..........................
..........................
..........................
..........................
..........................
..........................
..........................
..........................
..........................
..........................
..........................
..........................
..........................
..........................
..........................
..........................
..........................
..........................
..........................
..........................
..........................
..........................
..........................
..........................
..........................
..........................
..........................
..........................
..........................
..........................

Generation = 4, Population = 0.
..........................
..........................
..........................
..........................
..........................
..........................
..........................
..........................
..........................
..........................
..........................
..........................
..........................
..........................
..........................
..........................
..........................
..........................
..........................
..........................
..........................
..........................
..........................
..........................
..........................
..........................
..........................
..........................
..........................
..........................
..........................
..........................

Generation = 5, Population = 0.
..........................
..........................
..........................
..........................
..........................
..........................
..........................
..........................
..........................
..........................
..........................
..........................
..........................
..........................
..........................
..........................
..........................
..........................
..........................
..........................
..........................
..........................
..........................
..........................
..........................
..........................
..........................
..........................
..........................
..........................
..........................
..........................

*** Life<ConwayCell> 45x44 ***

Generation = 0, Population = 20.
............................................
.........*..................................
............................................
............................................
............................................
............................................
............................................
............................................
............................................
...........................*................
.......................................*....
............................................
............................................
...........................*................
......................*.....................
............................................
......*.....................................
............................................
............................*...............
..................*.........................
...........*................................
............................................
......*................................*....
............*...............................
.....................*......................
............................................
............................................
............................................
.....................*......................
............................................
............................................
..........*.................................
...*........................................
............................................
............................................
............................................
..............*.............................
............................................
................................*...........
........................*...................
............................................
............................................
............................................
.........................*..................
............................................

Generation = 1, Population = 0.
............................................
............................................
............................................
............................................
............................................
............................................
............................................
............................................
............................................
............................................
............................................
............................................
............................................
............................................
............................................
............................................
............................................
............................................
............................................
............................................
............................................
............................................
............................................
............................................
............................................
............................................
............................................
............................................
............................................
............................................
............................................
............................................
............................................
............................................
............................................
............................................
............................................
............................................
............................................
............................................
............................................
............................................
............................................
............................................
............................................

Generation = 2, Population = 0.
............................................
............................................
............................................
............................................
............................................
............................................
............................................
............................................
............................................
............................................
............................................
............................................
............................................
............................................
............................................
............................................
............................................
............................................
............................................
............................................
............................................
............................................
............................................
............................................
............................................
............................................
............................................
............................................
............................................
............................................
............................................
............................................
............................................
............................................
............................................
............................................
............................................
............................................
............................................
............................................
............................................
............................................
............................................
............................................
............................................

Generation = 3, Population = 0.
............................................
............................................
............................................
............................................
............................................
............................................
............................................
............................................
............................................
............................................
............................................
............................................
............................................
............................................
............................................
............................................
............................................
............................................
............................................
............................................
............................................
............................................
............................................
............................................
............................................
............................................
............................................
............................................
............................................
............................................
............................................
............................................
............................................
............................................
............................................
............................................
............................................
............................................
............................................
............................................
............................................
............................................
............................................
............................................
............................................

Generation = 4, Population = 0.
............................................
............................................
............................................
............................................
............................................
............................................
............................................
............................................
............................................
............................................
............................................
............................................
............................................
............................................
............................................
............................................
............................................
............................................
............................................
............................................
............................................
............................................
............................................
............................................
............................................
............................................
............................................
............................................
............................................
............................................
............................................
............................................
............................................
............................................
............................................
............................................
............................................
............................................
............................................
............................................
............................................
............................................
............................................
............................................
............................................

Generation = 5, Population = 0.
............................................
............................................
............................................
............................................
............................................
............................................
............................................
............................................
............................................
............................................
............................................
............................................
............................................
............................................
............................................
............................................
............................................
............................................
............................................
............................................
............................................
............................................
............................................
............................................
............................................
............................................
............................................
............................................
............................................
............................................
............................................
............................................
............................................
............................................
............................................
............................................
............................................
............................................
............................................
............................................
............................................
............................................
............................................
............................................
............................................

*** Life<ConwayCell> 5x19 ***

Generation = 0, Population = 18.
.....**............
..*......*.........
*.*.....*..*...*..*
....*........*...**
.........***....*..

Generation = 1, Population = 13.
...................
.*.................
.*.*.............**
.........*.**...***
..........*......*.

Generation = 2, Population = 12.
...................
..*................
..*.............*.*
..........**....*..
..........**....***

Generation = 3, Population = 10.
...................
...................
.................*.
..........**...**.*
..........**....**.

Generation = 4, Population = 11.
...................
...................
................**.
..........**...*..*
..........**...***.

Generation = 5, Population = 11.
...................
...................
................**.
..........**...*..*
..........**...***.

*** Life<ConwayCell> 34x31 ***

Generation = 0, Population = 20.
............*..................
...............................
........*...............*......
........*......................
...............................
...............................
................*..............
...............................
........................*......
...............................
........*......................
.........................*.....
...............................
...............................
.....*.........................
...............................
.........*.....................
...............................
...............................
*...........*..................
...............................
...............................
...........................*...
....*..........................
...............................
......................*........
...............................
...............................
...............................
.......*.......................
.*.............................
*.......*......................
...............................
...*...........................

Generation = 1, Population = 0.
...............................
...............................
...............................
...............................
...............................
...............................
...............................
...............................
...............................
...............................
...............................
...............................
...............................
...............................
...............................
...............................
...............................
...............................
...............................
...............................
...............................
...............................
...............................
...............................
...............................
...............................
...............................
...............................
...............................
...............................
...............................
...............................
...............................
...............................

Generation = 2, Population = 0.
...............................
...............................
...............................
...............................
...............................
...............................
...............................
...............................
...............................
...............................
...............................
...............................
...............................
...............................
...............................
...............................
...............................
...............................
...............................
...............................
...............................
...............................
...............................
...............................
...............................
...............................
...............................
...............................
...............................
...............................
...............................
...............................
...............................
...............................

Generation = 3, Population = 0.
...............................
...............................
...............................
...............................
...............................
...............................
...............................
...............................
...............................
...............................
...............................
...............................
...............................
...............................
...............................
...............................
...............................
...............................
...............................
...............................
...............................
...............................
...............................
...............................
...............................
...............................
...............................
...............................
...............................
...............................
...............................
...............................
...............................
...............................

Generation = 4, Population = 0.
...............................
...............................
...............................
...............................
...............................
...............................
...............................
...............................
...............................
...............................
...............................
...............................
...............................
...............................
...............................
...............................
...............................
...............................
...............................
...............................
...............................
...............................
...............................
...............................
...............................
...............................
...............................
...............................
...............................
...............................
...............................
...............................
...............................
...............................

Generation = 5, Population = 0.
...............................
...............................
...............................
...............................
...............................
...............................
...............................
...............................
...............................
...............................
...............................
...............................
...............................
...............................
...............................
...............................
...............................
...............................
...............................
...............................
...............................
...............................
...............................
...............................
...............................
...............................
...............................
...............................
...............................
...............................
...............................
...............................
...............................
...............................

*** Life<ConwayCell> 4x40 ***

Generation = 0, Population = 28.
...........*.*.....*..**......*.......**
*.................*......*..............
*..*..............*.......*..**..**.*..*
*....*........*....***....*.............

Generation = 1, Population = 14.
........................................
..................**.........**.......**
**................*.*....**.............
...................**...................

Generation = 2, Population = 6.
........................................
..................**....................
..................*.*...................
...................**...................

Generation = 3, Population = 6.
........................................
..................**....................
..................*.*...................
...................**...................

Generation = 4, Population = 6.
........................................
..................**....................
..................*.*...................
...................**...................

Generation = 5, Population = 6.
........................................
..................**....................
..................*.*...................
...................**...................

*** Life<ConwayCell> 11x29 ***

Generation = 0, Population = 23.
..............*...*..........
.....................*.......
.......*..*..................
.............................
.......*.....................
..*....*.*...*..............*
......*.......*...*....**..*.
......................*......
...........................*.
....**.......................
......*....*.................

Generation = 1, Population = 8.
.............................
.............................
.............................
.............................
........*....................
......***....................
.......................*.....
.......................*.....
.............................
.....*.......................
.....*.......................

Generation = 2, Population = 4.
.............................
.............................
.............................
.............................
........*....................
.......**....................
.......*.....................
.............................
.............................
.............................
.............................

Generation = 3, Population = 6.
.............................
.............................
.............................
.............................
.......**....................
.......**....................
.......**....................
.............................
.............................
.............................
.............................

Generation = 4, Population = 6.
.............................
.............................
.............................
.............................
.......**....................
......*..*...................
.......**....................
.............................
.............................
.............................
.............................

Generation = 5, Population = 6.
.............................
.............................
.............................
.............................
.......**....................
......*..*...................
.......**....................
.............................
.............................
.............................
.............................

*** Life<ConwayCell> 33x5 ***

Generation = 0, Population = 7.
.*...
.....
.....
.....
.....
.....
.....
.....
.....
.....
.*...
.....
.....
.....
.....
.....
.....
.....
.....
...*.
.....
.....
.....
*....
.....
.....
.....
..*..
.....
....*
.....
.....
...*.

Generation = 1, Population = 0.
.....
.....
.....
.....
.....
.....
.....
.....
.....
.....
.....
.....
.....
.....
.....
.....
.....
.....
.....
.....
.....
.....
.....
.....
.....
.....
.....
.....
.....
.....
.....
.....
.....

Generation = 2, Population = 0.
.....
.....
.....
.....
.....
.....
.....
.....
.....
.....
.....
.....
.....
.....
.....
.....
.....
.....
.....
.....
.....
.....
.....
.....
.....
.....
.....
.....
.....
.....
.....
.....
.....

Generation = 3, Population = 0.
.....
.....
.....
.....
.....
.....
.....
.....
.....
.....
.....
.....
.....
.....
.....
.....
.....
.....
.....
.....
.....
.....
.....
.....
.....
.....
.....
.....
.....
.....
.....
.....
.....

Generation = 4, Population = 0.
.....
.....
.....
.....
.....
.....
.....
.....
.....
.....
.....
.....
.....
.....
.....
.....
.....
.....
.....
.....
.....
.....
.....
.....
.....
.....
.....
.....
.....
.....
.....
.....
.....

Generation = 5, Population = 0.
.....
.....
.....
.....
.....
.....
.....
.....
.....
.....
.....
.....
.....
.....
.....
.....
.....
.....
.....
.....
.....
.....
.....
.....
.....
.....
.....
.....
.....
.....
.....
.....
.....

*** Life<ConwayCell> 21x15 ***

Generation = 0, Population = 14.
....*..........
.............*.
......*........
...............
...............
...**..........
............**.
....*......*...
...............
...............
...............
....*..........
...........*...
...............
...............
...............
.*.............
...............
.....*.........
...............
.......*.......

Generation = 1, Population = 4.
...............
...............
...............
...............
...............
...............
...**.......*..
............*..
...............
...............
...............
...............
...............
...............
...............
...............
...............
...............
...............
...............
...............

Generation = 2, Population = 0.
...............
...............
...............
...............
...............
...............
...............
...............
...............
...............
...............
...............
...............
...............
...............
...............
...............
...............
...............
...............
...............

Generation = 3, Population = 0.
...............
...............
...............
...............
...............
...............
...............
...............
...............
...............
...............
...............
...............
...............
...............
...............
...............
...............
...............
...............
...............

Generation = 4, Population = 0.
...............
...............
...............
...............
...............
...............
...............
...............
...............
...............
...............
...............
...............
...............
...............
...............
...............
...............
...............
...............
...............

Generation = 5, Population = 0.
...............
...............
...............
...............
...............
...............
...............
...............
...............
...............
...............
...............
...............
...............
...............
...............
...............
...............
...............
...............
...............

*** Life<ConwayCell> 12x31 ***

Generation = 0, Population = 28.
...............*...............
...................*...........
.................*..........*..
...*..........*........*...*...
..................*............
.*............................*
....*...............*..........
.*...............*.........*.*.
....*.....*..*.................
....*.......*.......*.....*....
.....**........................
...............*...*...........

Generation = 1, Population = 2.
...............................
...............................
...............................
...............................
...............................
...............................
...............................
...............................
...............................
....*..........................
.....*.........................
...............................

Generation = 2, Population = 0.
...............................
...............................
...............................
...............................
...............................
...............................
...............................
...............................
...............................
...............................
...............................
...............................

Generation = 3, Population = 0.
...............................
...............................
...............................
...............................
...............................
...............................
...............................
...............................
...............................
...............................
...............................
...............................

Generation = 4, Population = 0.
...............................
...............................
...............................
...............................
...............................
...............................
...............................
...............................
...............................
...............................
...............................
...............................

Generation = 5, Population = 0.
...............................
...............................
...............................
...............................
...............................
...............................
...............................
...............................
...............................
...............................
...............................
...............................
