*** Life<ConwayCell> 40x3 ***

Generation = 0, Population = 55.
**.
.*.
.*.
***
.**
*..
*.*
*..
*..
.*.
*..
*.*
***
**.
.*.
*.*
...
..*
.**
**.
**.
**.
***
*.*
...
*..
*..
.*.
...
.**
...
*..
**.
..*
.*.
.**
...
..*
.*.
*..

Generation = 9, Population = 21.
...
***
*.*
***
...
...
...
...
...
...
...
...
...
...
**.
**.
...
...
...
...
...
...
...
...
...
...
...
...
...
.**
.**
...
...
...
...
.*.
*.*
.**
...
...

*** Life<ConwayCell> 25x35 ***

Generation = 0, Population = 125.
...*................**.............
*.**...*........................*..
...............*......*..........*.
.....................*...*.*...**..
......*...................**.......
......*...........*..........*..**.
..*...*...*............*.....**....
......*...................*..*.....
.*...*.......*..*......*.....*.....
....*..............................
...*..**.....*....*....*........*..
...**..*.....*...*.*.*.............
........*.....**....*..*....*......
....*......**.......*.**........*..
.*..............*.........*........
..*....*.........*............*....
...........*.....*..*..*...*.....*.
.......*...*.*..*.....*....***...*.
...........*.....**........***.....
...........*...........*....*......
...............**.*..*........*....
*......*.......*.**...*...*...*....
...................*..***.*.*....**
......*.............**....*.*......
...........................*.......

Generation = 4, Population = 80.
..**...............................
..**...............................
..........................**.......
..........................**...*...
.....**...................**.**.*..
....*..*......................**...
....*.*........................*...
.....*.............................
...................................
...................................
.......**....*....*................
...*...**....**...*................
...**..........**.....*............
...**.........*........**..........
.................*....**...........
..............*...*................
...........*..*...**...............
..........*.*..**..........*.*.....
..........**......**.......*..*....
..............*.**........*........
..............*..........*.........
...............*...............*...
......................*.*.....*....
.....................*.............
.....................*....**.......

Generation = 8, Population = 79.
..**...............................
..**...............................
.............................***...
..........................*..***...
.....**..................*.*.*..*..
....*..*..................***.*.*..
....*.*.......................**...
.....*.............................
...................................
...............*...................
.......**....**.*..................
.......**...**..*..................
............**.....................
..............**.......*...........
.............**...*.....**.........
............***....**..**..........
...........**......**..............
..........*......*.*...............
..........****..*..*...............
...........***.*..**...............
...............***.................
...................................
...................................
...................................
...................................

Generation = 12, Population = 81.
..**...............................
..**..........................**...
.............................**.*..
...............................***.
.....**...................**.*.*.**
....*..*.................*......**.
....*.*.........................*..
.....*........................*....
..............................*....
..............**...................
.......**....*.**..................
.......**...******.................
............*.***..................
..........**..**...................
..............**...*....*..........
...................*.....**........
...............**...*...**.........
...............*..*.**.............
..............*.....**.............
..............**....**.............
................****...............
...................................
...................................
...................................
...................................

*** Life<ConwayCell> 2x8 ***

Generation = 0, Population = 16.
********
********

Generation = 8, Population = 0.
........
........

Generation = 16, Population = 0.
........
........

*** Life<ConwayCell> 5x36 ***

Generation = 0, Population = 72.
*.*....*.**...*..*..****..*....***..
.*..*..*.....***.**...*.*.***....*.*
***...*.*..**...*.**..*......*.**.*.
...*..*..***.*....***....**.**..**..
.*.**...*.....*..*.**...*....*....**

Generation = 1, Population = 77.
.*......*....******..***.**.....***.
...*..**.*******....*....****.*.....
****.**.**.*...**...**.*.....***..*.
*..***..****.*.......*...*..**.**..*
..***....**.........*....*..**...**.

Generation = 2, Population = 58.
.......*****....**...**.**.......*..
*..****....*.......**..*.*.**.*.*.*.
**.............**...***.**......*...
*.....**...**........**.*......**..*
..*..*..*..*................***.***.

Generation = 3, Population = 61.
....********........*******......*..
**..******.*...*.*.*...........**...
**..*..*...**......*.....**.....*...
*.....**...**.......*.*.**...**...*.
......**...**................**.***.

Generation = 4, Population = 52.
....*......*........******......*...
**.*..............**.***.......***..
....*.............***...***...*.**..
**...*..*.*..*..........***..**.*.*.
......**...**................***.**.

Generation = 5, Population = 39.
...................**...*......***..
...**.............*.......*.........
..*.*.............*.***...*..**...*.
.....***...**......*....*.*.......*.
......**...**............*...*.****.

Generation = 6, Population = 38.
...................*............*...
...**.............*......*....****..
....*.*...........*.**....**........
.....*.*...**......***....*..*.**.**
.....*.*...**............*......***.

Generation = 7, Population = 41.
................................**..
...***............*.*.....*....***..
...**.*...........*..*...***......*.
....**.*...**......*.*...***...**.**
...........**.......*..........**.**

*** Life<ConwayCell> 23x19 ***

Generation = 0, Population = 127.
.*..*.*.*...*.*.*..
..*.....**.******..
....*......*...*...
*.*.**...*****.....
..*.*...*..*..*....
...*....*****......
**.*.*.*..*.*.*.**.
........*....**....
..*..*.....*.....*.
.*.*.**.**.........
......*......*.....
*...*...*.*......*.
*...**.*........*..
*.*.*.........*...*
..*...*........*...
.*.........*.*..**.
..*.**.**.*.*..*.*.
.*.*.......*.**..**
*.*........*....*..
*.*....*....*.*..*.
......*.........*..
**...*.....*.*.....
.**...**...*..*...*

Generation = 11, Population = 70.
........*......**..
.......***...*..**.
......*...*..**....
...........*.*.....
......*....*....*..
...**......**..*...
..*........*...**..
.*........*.....*..
.**.*....*.........
....*****..........
..*.***............
.*.**..............
....*..............
.*.*.......***.*...
............*..*...
...........*.*.....
...........*.......
.............**....
.............*.*...
.............***...
......*............
.**...**...........
...................

*** Life<ConwayCell> 28x6 ***

Generation = 0, Population = 73.
..*.**
.*...*
.*..*.
.*...*
*.....
.....*
....**
.**.*.
.*..**
***...
.**...
...**.
**..**
.*.*..
**..*.
*..*.*
.*.**.
*.**.*
*....*
****.*
.*.*.*
**..*.
.*.*.*
*.**..
.**..*
...***
.**...
.....*

Generation = 11, Population = 32.
......
......
......
......
......
......
......
......
......
.*....
**....
..*...
*.*.**
..*...
......
....**
***...
*.*...
*.....
.*....
.**...
.***..
*.....
....*.
....*.
...*..
.*..*.
..***.

*** Life<ConwayCell> 48x47 ***

Generation = 0, Population = 11.
...............................................
...............................................
...............................................
...............................................
...............................................
............................................*..
...............................................
...............................................
...............................................
..........*....................................
..*............................................
...............................................
...............................................
...............................................
...................................*.........*.
.....................*.........................
...............................................
...............................................
...............................................
.................................*........*....
....*..........................................
...............................................
...............................................
...............................................
...............................................
...............................................
...............................................
...............................................
...............................................
...............................................
...............................................
...............................................
...............................................
...............................................
...............................................
...............................................
...............................................
.........................*.....................
...............................................
...............................................
...............................................
...........................*...................
...............................................
...............................................
...............................................
...............................................
...............................................
...............................................

Generation = 2, Population = 0.
...............................................
...............................................
...............................................
...............................................
...............................................
...............................................
...............................................
...............................................
...............................................
...............................................
...............................................
...............................................
...............................................
...............................................
...............................................
...............................................
...............................................
...............................................
...............................................
...............................................
...............................................
...............................................
...............................................
...............................................
...............................................
...............................................
...............................................
...............................................
...............................................
...............................................
...............................................
...............................................
...............................................
...............................................
...............................................
...............................................
...............................................
...............................................
...............................................
...............................................
...............................................
...............................................
...............................................
...............................................
...............................................
...............................................
...............................................
...............................................

Generation = 4, Population = 0.
...............................................
...............................................
...............................................
...............................................
...............................................
...............................................
...............................................
...............................................
...............................................
...............................................
...............................................
...............................................
...............................................
...............................................
...............................................
...............................................
...............................................
...............................................
...............................................
...............................................
...............................................
...............................................
...............................................
...............................................
...............................................
...............................................
...............................................
...............................................
...............................................
...............................................
...............................................
...............................................
...............................................
...............................................
...............................................
...............................................
...............................................
...............................................
...............................................
...............................................
...............................................
...............................................
...............................................
...............................................
...............................................
...............................................
...............................................
...............................................

*** Life<ConwayCell> 46x25 ***

Generation = 0, Population = 28.
.......................*.
................*........
............*............
.......*.................
.........................
.........................
.........................
.........................
.........................
..........*..........*...
.................*.......
.........................
...........*.............
.........................
.........................
.........................
.........................
.........................
.............*...........
.........................
...*.........*...........
.........................
.........................
*........................
.........................
..*......................
.........................
...*.....................
..............*.......*..
...................*.....
........*................
.........................
.........................
*..........*.............
.........................
.........................
....*...................*
......*..................
.*.......................
.....*...................
.......*.................
.........................
.........................
.........................
...............*.........
........*................

Generation = 4, Population = 0.
.........................
.........................
.........................
.........................
.........................
.........................
.........................
.........................
.........................
.........................
.........................
.........................
.........................
.........................
.........................
.........................
.........................
.........................
.........................
.........................
.........................
.........................
.........................
.........................
.........................
.........................
.........................
.........................
.........................
.........................
.........................
.........................
.........................
.........................
.........................
.........................
.........................
.........................
.........................
.........................
.........................
.........................
.........................
.........................
.........................
.........................

Generation = 8, Population = 0.
.........................
.........................
.........................
.........................
.........................
.........................
.........................
.........................
.........................
.........................
.........................
.........................
.........................
.........................
.........................
.........................
.........................
.........................
.........................
.........................
.........................
.........................
.........................
.........................
.........................
.........................
.........................
.........................
.........................
.........................
.........................
.........................
.........................
.........................
.........................
.........................
.........................
.........................
.........................
.........................
.........................
.........................
.........................
.........................
.........................
.........................

*** Life<ConwayCell> 12x39 ***

Generation = 0, Population = 105.
.*....*..............**..*.....*..*....
....**........*.*...*...............*..
..***..*.**................*....**.....
.......*.*.........*...**.*.....*.*....
..*.......*.....***......**..**....*.*.
........*.......**..***...*.**.***.....
...*..............*..***...*..**..**..*
.....*......*.**........***..*...**....
*....*......*..............**.*...*....
.................*......*.*....*......*
..*...*...*..**...........**....*..*...
**..*......*...*.*..*.....*...*..*.....

Generation = 11, Population = 74.
................................*..*...
...............................**..*...
....*..................***...***.*..*..
...*.*.............*...**.*.*......*...
..*...*........****.*...*...*******....
...*.*.........****.*....*.*.*...*.....
....*...........****...........**......
........................*.*....**......
........................*.....**.......
.........................***.**.*......
..........................**.*...*.....
..............................*.*......

*** Life<ConwayCell> 31x36 ***

Generation = 0, Population = 63.
..............................*....*
....................*.*......*......
....................*...*......*....
................................*...
..........*.........................
......*.............*........*......
.........................*......*...
.........................*.....*....
........*...........................
.....*........*.....................
*...................................
...................**..........*....
........*.....*.......*.............
....*...............................
....................................
.........*......*...............*...
....................................
*...................................
......*...............*.............
..*......................**.........
...................*.............*..
.............................*.*....
.*..........*.......................
.........*...................*.....*
..........*.*..........*......*.....
............................*.......
.*........*..................*....*.
*.......................*..........*
...................................*
...........*.........*..............
.....................*.............*

Generation = 12, Population = 0.
....................................
....................................
....................................
....................................
....................................
....................................
....................................
....................................
....................................
....................................
....................................
....................................
....................................
....................................
....................................
....................................
....................................
....................................
....................................
....................................
....................................
....................................
....................................
....................................
....................................
....................................
....................................
....................................
....................................
....................................
....................................

*** Life<ConwayCell> 30x26 ***

Generation = 0, Population = 146.
**..*........*.*.....***..
....**....*..**.....*..*..
..........**..............
...***.*......*..*.....*..
..**..**.*...........*...*
..*......**....*.*........
*....*.*....*.....**....**
*.*.............*.........
.....*...*.............**.
....*...........*.....*...
..........*...............
....**...*..*.*...*...**..
.....*....**.........*....
...***....*....*.***.*...*
....*..*.*.*......**.*....
........*.*......*...*....
*...........*....*........
.*...*.*..........*.**....
.*.....*...*.*............
.*..*..............*......
.....*....*.**..*....**...
.............*........*...
*..........**....*...*....
.......*............*.....
.*.......*.......*..*....*
*...*....*..**..*....*..*.
......*.*.........*.......
..*......................*
...*..*.*.*...*...........
*.....**..................

Generation = 3, Population = 126.
....**....................
...**.**.....**...........
..**..**..................
......**..................
.*.*....***...............
.**.......*.......*.......
.*..............*.*.......
.................**....**.
......................*...
........................*.
....**...............*....
...*..****...........***..
...****.***.......***.....
..**......*.....**.**.....
..**.*..*.***..*..........
....******.**.........*...
.........***....*..****...
..........**.....**..*....
*.*.................**....
.*..........***.....***...
............***.....*.*...
.............**.....*..*..
......................**..
......................*...
........**...........*....
.......*..*...............
........**................
.......**.................
......**..................
......**..................

*** Life<ConwayCell> 37x10 ***

Generation = 0, Population = 9.
*.........
..........
..........
..........
..........
..........
..........
..........
..........
..........
..........
..........
......*...
..........
..........
.........*
...*......
..........
..........
..........
..........
..........
..........
..........
..*.......
.....*....
..........
..........
..........
..........
.......*..
..........
..........
..........
..........
..........
......*..*

Generation = 5, Population = 0.
..........
..........
..........
..........
..........
..........
..........
..........
..........
..........
..........
..........
..........
..........
..........
..........
..........
..........
..........
..........
..........
..........
..........
..........
..........
..........
..........
..........
..........
..........
..........
..........
..........
..........
..........
..........
..........

Generation = 10, Population = 0.
..........
..........
..........
..........
..........
..........
..........
..........
..........
..........
..........
..........
..........
..........
..........
..........
..........
..........
..........
..........
..........
..........
..........
..........
..........
..........
..........
..........
..........
..........
..........
..........
..........
..........
..........
..........
..........

*** Life<ConwayCell> 4x31 ***

Generation = 0, Population = 10.
........*......................
...............................
.......*.........*.....**......
........*.*...*.............*.*

Generation = 3, Population = 0.
...............................
...............................
...............................
...............................

*** Life<ConwayCell> 49x29 ***

Generation = 0, Population = 56.
.*...........................
.............................
................*.....*......
.........................*...
.......................*.....
.............................
*............................
..............*............*.
.....*............*..........
...........................*.
........*....................
....*..*.....................
.............*.....*.........
.........*...*...............
....................*........
..........*..*...............
..........*..........*.......
................*............
..........*...........*......
.................*...........
..........*..................
.............................
.............................
...................*.........
......................*......
...............*.....*.......
.........................*...
.*.*........................*
.............................
.*.......*.........*....*....
.............................
.............................
.............*........*......
.............................
.............................
*..................*.........
*............................
............*................
.......................*.....
.............................
*....................*.......
...................*.........
.............................
......*.*...*................
.............................
.............................
.........*...................
....*........................
.................*...........

Generation = 4, Population = 0.
.............................
.............................
.............................
.............................
.............................
.............................
.............................
.............................
.............................
.............................
.............................
.............................
.............................
.............................
.............................
.............................
.............................
.............................
.............................
.............................
.............................
.............................
.............................
.............................
.............................
.............................
.............................
.............................
.............................
.............................
.............................
.............................
.............................
.............................
.............................
.............................
.............................
.............................
.............................
.............................
.............................
.............................
.............................
.............................
.............................
.............................
.............................
.............................
.............................

*** Life<ConwayCell> 3x15 ***

Generation = 0, Population = 44.
***************
***.***********
***************

Generation = 4, Population = 0.
...............
...............
...............

*** Life<ConwayCell> 37x49 ***

Generation = 0, Population = 132.
..................*..........*..........*........
.................*....*...*......*...............
.....*................*...*..*...........*.......
.................................................
....*...............*............................
...........*................*..................*.
.......................*...*...............*.....
...............................*.....*........*..
*.*.........*................*...................
............**......*......*.....................
.....................*...........*...............
.........................*..*...*................
..............*........................*.........
.*............*.*.................*..............
............................*....................
.........................*.**....................
*..*..*.....*..........*....**...................
..*..*...........................................
......*................*..........*..............
...........*.........*.......................*..*
...................*.*....................*......
................................*.......*.....*..
.......*.*............................*......*...
...*.......*.*....*............*.................
......................*......................*...
.........*.*..**..................**...*.*.......
............*.....*.....*.......................*
.....*.........................................*.
.............................**....*.......*.....
..................*.*....*............*...*......
......................*..........*....*......*...
..*.............................*............*...
.*..*...........*...............*.....*..........
......*.*...............*........*.......*.......
....*..*..........*..........*..**......*........
......................*..*..........*............
*...........................*...............*....

Generation = 5, Population = 17.
.................................................
.................................................
.................................................
.................................................
.................................................
.................................................
.................................................
.................................................
............**...................................
............**...................................
.................................................
.................................................
.................................................
.................................................
...........................**....................
..........................*..*...................
..........................**.**..................
............................*....................
.................................................
.................................................
.................................................
.................................................
.................................................
.................................................
.................................................
.................................................
.................................................
.................................................
.................................................
.................................................
.................................................
.................................................
.................................**..............
.................................**..............
.................................................
.................................................
.................................................

*** Life<ConwayCell> 45x42 ***

Generation = 0, Population = 70.
..........................................
*...................................*.....
.........................................*
....*.................*...................
..........................................
....................*.....................
............*.............................
...................*............*........*
...............*.*........................
...............*...................*......
...................*...........*.*........
...*........................*..........*..
..........................................
..........................................
..........................................
.....................*....................
........................*.................
.......................*........*.........
.*...*....................................
...*......*...............................
......*...................................
..........................................
..............*.*..................*......
..........................................
...................*...**...........*.....
................*..............*..........
............*.............................
........................*.................
.*........................................
...................................*.*....
....**................*........*......*...
*..............................*..........
.............................*............
..........................................
.*...................*....*...............
.........................*...............*
....**....................................
......*..........................*.....*..
....*................*....................
.......................................*..
..........................................
.............................*............
..*..........................*............
....*................................*...*
..........................................

Generation = 4, Population = 0.
..........................................
..........................................
..........................................
..........................................
..........................................
..........................................
..........................................
..........................................
..........................................
..........................................
..........................................
..........................................
..........................................
..........................................
..........................................
..........................................
..........................................
..........................................
..........................................
..........................................
..........................................
..........................................
..........................................
..........................................
..........................................
..........................................
..........................................
..........................................
..........................................
..........................................
..........................................
..........................................
..........................................
..........................................
..........................................
..........................................
..........................................
..........................................
..........................................
..........................................
..........................................
..........................................
..........................................
..........................................
..........................................

*** Life<ConwayCell> 14x44 ***

Generation = 0, Population = 134.
....*..*...***.......*...**........*...*....
..*....*...*....*..*.........*...*..........
*.....*..*..*.*.*.**..*.**...*.........**...
*......*.....*.......*...*.**..*.**......**.
...*............*..*...*...............**...
.......**..**....*....**.**.................
...*..*..*.....*.......*.*.*..............*.
*...*.........**.....*......*...*........*..
.....*.*.*..*....*...*...**.*......*.*......
..........................*.....*.*......*.*
.*......**..*....*....*...*...*...*..**..**.
......*...***...*..*..........*.......**.**.
.....*..*.....**....*....*..*..*..........**
..*......*....***...........*.....***...*...

Generation = 6, Population = 114.
......**....*...***......................*..
.....*.......**.**....*..........*.......**.
....*...*.***.*.*....**.....***..*........**
.....*....*..*..........*...***..*..........
....*.***.*...**.***.****.*.................
....**.*...*...**....*..*.*.................
........*.*....*...*..*...**................
...*.....*......*.*....**.**.........*......
....*...........**.....**..*.........**.....
........................**.**..**...***.....
.........................*.*..*..*.....*....
.........**...............*....***..........
.........**......................****.......
...................................*........

Generation = 12, Population = 136.
...........****...............***........**.
.....*..*..............**...*.**.*......*..*
.....*.******.....*...*..***.*...*.......*.*
...**.....*.***..**...*..**.**..*.........*.
..*.*.*.**...****.*...**.**.....*...........
..*.......*..*..***..***.**.................
...******..*.*..***...**..**................
.....*.....*.**...**...**.**................
.........*.*..*...*....*..*...........*.....
.........**....*..*...**.***..........*.....
.........**....***.........*..........*.....
.........**.............****................
.........**..............***................
............................................

*** Life<ConwayCell> 3x13 ***

Generation = 0, Population = 34.
**.********.*
******.******
****.******.*

Generation = 10, Population = 0.
.............
.............
.............

*** Life<ConwayCell> 32x12 ***

Generation = 0, Population = 68.
.....*...*..
............
*...*.......
.....*..*..*
............
...*..**....
....*.*.*.**
**..*.....*.
....*...*...
.**.*.*..**.
.*...*..*...
........*.**
...........*
*...........
...........*
.....*......
............
.*..........
..*..**.....
........**..
.........*..
..*...*.....
*.....*.....
.*...**.*.*.
*...*......*
**..........
.*.*.......*
............
...*....*...
...*......*.
.........*..
.....*.....*

Generation = 10, Population = 14.
............
............
............
............
............
............
..........*.
........*..*
..*....*..*.
..*.*...*...
....*.......
............
........*...
............
........***.
............
............
............
............
............
............
............
............
............
............
............
............
............
............
............
............
............
