*** Life<FredkinCell> 9x9 ***

Generation = 0, Population = 3.
---------
---------
---------
---------
---000---
---------
---------
---------
---------

Generation = 1, Population = 10.
---------
---------
---------
---000---
--01-10--
---000---
---------
---------
---------

Generation = 2, Population = 12.
---------
---------
---000---
---------
-012-210-
---------
---000---
---------
---------

Generation = 3, Population = 30.
---------
---000---
--01-10--
-00-0-00-
01-3-3-10
-00-0-00-
--01-10--
---000---
---------

*** Life<FredkinCell> 10x10 ***

Generation = 0, Population = 4.
----------
----------
----------
----------
----00----
----00----
----------
----------
----------
----------

Generation = 1, Population = 8.
----------
----------
----------
----00----
---0--0---
---0--0---
----00----
----------
----------
----------

Generation = 2, Population = 16.
----------
----------
----00----
----11----
--01--10--
--01--10--
----11----
----00----
----------
----------

Generation = 3, Population = 16.
----------
----00----
---0--0---
--0----0--
-0------0-
-0------0-
--0----0--
---0--0---
----00----
----------

*** Life<FredkinCell> 5x5 ***

Generation = 0, Population = 4.
-----
--0--
-000-
-----
-----

Generation = 1, Population = 10.
--0--
--1--
01110
-000-
-----

Generation = 2, Population = 13.
-010-
0---0
12-21
--1--
-000-

Generation = 3, Population = 20.
-1-1-
10101
-313-
00200
01110

Generation = 4, Population = 13.
-212-
2-2-2
14-41
-----
-222-

*** Life<FredkinCell> 4x4 ***

Generation = 0, Population = 2.
----
-00-
----
----

Generation = 1, Population = 8.
-00-
0110
-00-
----

Generation = 2, Population = 4.
----
1--1
----
-00-

Generation = 3, Population = 12.
0--0
-11-
0000
0110

Generation = 4, Population = 4.
----
1--1
----
-22-

*** Life<FredkinCell> 20x20 ***

Generation = 0, Population = 156.
-0---0-0----0----000
0-0-------0--0----0-
---0--0---0-00-0---0
-0--0-----0--00000-0
-----0-----000--0000
-00-----0-000-----00
--00-0--00--00000---
--000---000-0------0
00-00--0-0--0--0-0--
-000-0--0-------0-0-
-------0-0---0----0-
00-0-0--0-0-0-0---0-
--0-0----0-----0-0--
0---00-0----0-0---00
--0---0-0--000-----0
00000--0----000-00--
-00---0----0-0---000
-00--0-0-0---------0
-0000-00-0--00-0---0
00-0--000---00----0-

Generation = 2, Population = 191.
-0-0--0--0---00-1-2-
-10-----0-21121--0-1
----01-1--0-2-120--2
1010--1-----1-0-2-10
--10-0101--0-00--222
120-0-0--------1---0
------11-0-02----1-0
10000--00-2---1-11--
200--01-020121--1001
--0---11-10-----0--1
1010-0---0--0--01---
---0101-----0---0--1
0---2---00--00-0-01-
0-010-1-01--210-0-20
00--0---0-----1--10-
2-00--1---01--2-2--0
02--1--1-----2-000--
1-2--00-02-1--0-0-00
0--2---21211--00-00-
-0--01-----100110-00

Generation = 4, Population = 209.
------0-000--00----1
-12-1---01-134---023
-0-0--1---21-2---00-
3030013----0-202--12
01-012-031--22000---
---10--1--1-21---00-
00-101--20-241-113--
1--0---00-----1---00
22-1-2-0-4-123-1--01
-10---1-1300------1-
------1------1-23100
120--23-----000--0-1
2-1120-100--20-0--11
012-2--02-11--01-042
22-1---1201----11-02
-1222----1-31-4-4100
24--1011--1--202-200
12--02--02-3--20-0-2
--1-1-0-3-13-0--0--2
10--2--22-01-0----02

Generation = 6, Population = 194.
-2-01-000220--211-2-
-1---101-1-1---01043
0-----32-043-2-3----
--30-33---1-3--2----
-1--122-3-0--2---3--
----21-3-11-43011--1
02--23--22-4--1-13--
1--01--00-30-1-----0
--23022-06112-113-2-
012--0--3500----101-
-02----------31-3-2-
1-0-2-3-11010--11--1
2---4-112-0---0212-3
2-----2-4113-2-31-4-
2------1---2-0--1224
33-42-2----531-0-3--
-610-2---------2--2-
--21---10--5-120-2--
-21-1104-4-50-------
3--2---420-10-3-2-22

Generation = 8, Population = 194.
1-0----20-20-1--12--
--411-0-1-214-2-3-6-
0-121----0-3322-0-2-
4--22350---2------1-
-12--22-3--1341113-4
3--34--3-1126---1-2-
0422------0------5-1
--1-3--2--3---2---0-
-2-52---2----5------
---00--33-20--0---33
--4-12-0-1----34-3-0
-32--251-1-120-1-113
-13-60-1-101-0-21425
23-14-414---2423--64
-3-32-113-12-0-----6
-33-41-00--5----5-12
--3---13-0--1-----22
1------123171320--0-
14-2--0-3-17-111--2-
-1----04-0-1---22---

Generation = 10, Population = 195.
--21-004-3-0-1---4-2
-3631-03-2-1-5------
2---3----0---22---23
-0524----1---31-3---
13--2-203-0--41--5-4
-313-2-32---642-3-2-
-4----1-2--5--3-1--1
--3-511-----0-2-1--0
3-3-4--2-8-2--3-----
--3-213-37-21-20----
2---1-201-0-24---530
-3---45-1--120213---
23-26----10120-4162-
45-1--4----4--2-21-6
--23-11---------2--6
4335-322-2-7-25-541-
----32--0211---3144-
3---1--1-5----4--302
14-232-5--191--3-243
33-33306--1312--41--

Generation = 12, Population = 205.
-32-32240--2-34---3-
0---1-0322----313---
-113335310655-24-1-5
6052---203-2---3----
-5-2-34-3-0--6---54-
4--562-3---3-6-1--22
-6434------56-3-1-0-
315-5---214201-0-3-2
32---44---1---3--13-
13-04----7--112231-4
206132-0-300-4-4--3-
3541-653---1------25
-53-8-2--3---0-----6
-5--51-2-----42-4---
-------1----021--438
--555-4414-9347-7--3
27-13-2522----1----2
5-3-1323--38--41-50-
34--3225-5-+1-2--46-
3--355-6-1----4-6---

Generation = 14, Population = 209.
1-41-2-604-2-----533
-57412----2-5553508-
31-55--3--6----621--
-07-54-2031--52-4034
-7--4---53-35--1-74-
45--8-1---2588-140--
-66-632-430-6-3---2-
-1-171--4--4----350-
--3-56---+3-365-3--2
35--4---49-----431--
408--24-230-46463-52
3541-6--31--30-33---
-7--+04243124-1-----
572-5-645--5-6-3----
2-35-2-1422202---6--
------443-1+5------3
---1-3454-1-33--35--
5-32---53--825-3-5--
-6-2-2-7-72+31-3----
531-------2-3-62-1--

Generation = 16, Population = 184.
---1-43-06---5---555
1-----2--2-3--5-7---
--2-747510---33--34-
---47-6-2513-----0--
2----36-5--35-----44
6-1-8-34----8+4--04-
08---5--4-0--2-21643
-35--3136--42-213-02
--36--6-4-5--6---34-
--516--4-+4-2-4----4
-0-----14--0---65-7-
-5--46-3-3-2---33-3-
-742+264-----1-5-737
592---6472---8--52-7
--3---2-42-22---36-9
-3-6-5-------68----3
3-434-6562-15--4-564
5---3--73------5----
-8-4-239-----1331---
-53-6--8---5---261-3

Generation = 18, Population = 197.
-45--6372-3---4-17-7
1-95--23--3-767-718-
--2--4--3-66-5---3-6
-1---5----1----45256
-8-3----7-0--7-2-9--
-7168-364--6---1406-
---4-7326-----3-3843
---2-3-3826-42---5--
-3----82----56--35--
35-----6--432---43--
-2-24-636-----465693
455246--5-1451----3-
2-------4--453-71757
--4-728-9-36-+-354-7
-4---243----4--2-63-
--6-6555-4-+78------
--65-5---4--73--47-4
7-545--9-649--551---
4+24--3------33-1--4
-5-5650-3--5--728333

Generation = 20, Population = 197.
16---8---653-5-2-76-
--+--3---3-4---471--
5-4-86--31887-3733-8
83--8--2--13----5-5-
-84--5-19---6-2-2956
7-1----8-32-9+5--0--
-9--8----3----3-386-
346-7----28---32--13
-5-7----5+63---2--52
-7-381-64+6322-4-5-5
6-924-85-411476----5
4-5---6--3-6--2-3--6
4-53+38-45-67-1---77
-+4---8-+--63-2-----
4-564--3--44-33-4659
--8----5-62----2-5-4
-98-4--6--2-73154--4
--747-2--6-+27-5---2
-+------59-+-553--6-
6---6-0-----5-72-3-3

*** Life<FredkinCell> 15x15 ***

Generation = 0, Population = 85.
----000000----0
--00--00--0-0-0
-0--0-0000--0--
000---00-00--00
00---0--00---00
--0---0-0--000-
--0------0--00-
---0--0------0-
-0-0--00-0--0--
--0-0-0-------0
---0-0--0----00
-0--00--0-0-000
-0---0-----0--0
----0-0-000----
----00-----0---

Generation = 2, Population = 109.
-0102---0200---
--2---22-----02
0210-02-00-1-00
--2--0--0221-0-
00--1--00-0-020
-021--002-12-2-
---0000-0-1-02-
-1---1------121
-01-01-2--110--
000001----0----
-1-------11----
-------1-001--2
---01--001-00--
-10--0-02--1-01
-0010-00-1---00

Generation = 4, Population = 114.
-230--2122-21-2
1-2-------1-202
22-2-0210-13---
01--0-0--4-1101
-01010--2-0-2-2
0-21--0-40---20
00-00--12---04-
1---111-1-0-34-
0212---2-11---1
----2-2-0000-0-
-30--2-1-1300--
0--121----2----
-2-23-1---12---
1---201--1--10-
1--1---0-1-1-0-

Generation = 6, Population = 107.
-452-1412414-14
304---2-003-202
422--2---1-321-
0---2--0-----0-
203---114-0142-
--2---02-2-32--
-2-001-34--10-0
--1----0--2-3--
02---3-2--3--11
--102-20200----
--2--411213-20-
-2-1--03--22---
1---5-3--11----
-----01-3-----2
--2-1-1--30----

Generation = 8, Population = 108.
-4-4---14---21-
3-610-4------0-
6-2302----2-43-
-3---112154--02
2---321161-36--
--4-10-45--54-1
-2---3156--1-50
2--1-1---1-1--2
24-403220-3--3-
2--0--20-22----
04-10--1----42-
-21--1-3-24-122
1----23-1--3-0-
-1--3---3--22-2
------31---20--

Generation = 10, Population = 114.
0-7632536626--5
-------3-040-03
8------2224-650
1--13--4374130-
-04--231--2-62-
-04-120-7-374--
-2-2051760----2
-3--2-3-3-4--5-
-6-6-544215---2
---04----42--0-
0---2-11-2----1
-2-1-325---41-4
-31----2321----
-1-1-1-1--2---2
2---2--3--2-0-1

Generation = 12, Population = 120.
-49-325---4-4-7
4--211---2403-5
-4252244---4650
3-3-522--9-----
-0-14-51-1-3-23
-243--2----7-23
-2-40-----32-6-
-3--413-316--5-
4--8076-4372--2
-1204-2---21-02
0-324--134-25--
-----5--135-3-6
2--352-43--4---
---1-12-42-43--
-02-215---4-0-3

Generation = 14, Population = 116.
0-+7--7----7-1-
-1721---1-62-1-
+6-7-26-42-----
335274--5+5141-
-2-143--6-2--2-
--45-3---3374-3
2-24--17-1321--
--2---------5--
--1809-44--21-4
3-4062---6-31--
-5--4-1--442-2-
-331474--575526
-----45-53-6-12
-3-33-2---3431-
-2-2----1--32-3

Generation = 16, Population = 0.
---------------
---------------
---------------
---------------
---------------
---------------
---------------
---------------
---------------
---------------
---------------
---------------
---------------
---------------
---------------

Generation = 18, Population = 0.
---------------
---------------
---------------
---------------
---------------
---------------
---------------
---------------
---------------
---------------
---------------
---------------
---------------
---------------
---------------

Generation = 20, Population = 0.
---------------
---------------
---------------
---------------
---------------
---------------
---------------
---------------
---------------
---------------
---------------
---------------
---------------
---------------
---------------
